…
tidyr::gather()
=======================================================
the converse of spread--usually to make a data set tidy  
arguments: name of gathered variable, name of metric, columns to gather or exclude  

```r
carrier_month %>% 
  gather("Carrier", "count", -month)
```

```
# A tibble: 192 x 3
# Groups:   month [12]
   month Carrier count
   <int> <chr>   <int>
 1     1 9E       1573
 2     2 9E       1459
 3     3 9E       1627
 4     4 9E       1511
 5     5 9E       1462
 6     6 9E       1437
 7     7 9E       1494
 8     8 9E       1456
 9     9 9E       1540
10    10 9E       1673
# ... with 182 more rows
```
…
